^C:\USERS\FERNANDO NEVES\DESKTOP\WORK\COMUNICATION\COMUNICATION\RELEASE\COMUNICATION.OBJ|C:\USERS\FERNANDO NEVES\DESKTOP\WORK\COMUNICATION\COMUNICATION\RELEASE\CONNECTION.OBJ|C:\USERS\FERNANDO NEVES\DESKTOP\WORK\COMUNICATION\COMUNICATION\RELEASE\HELPERS.OBJ|C:\USERS\FERNANDO NEVES\DESKTOP\WORK\COMUNICATION\COMUNICATION\RELEASE\JSON_READER.OBJ|C:\USERS\FERNANDO NEVES\DESKTOP\WORK\COMUNICATION\COMUNICATION\RELEASE\JSON_VALUE.OBJ|C:\USERS\FERNANDO NEVES\DESKTOP\WORK\COMUNICATION\COMUNICATION\RELEASE\JSON_WRITER.OBJ|C:\USERS\FERNANDO NEVES\DESKTOP\WORK\COMUNICATION\COMUNICATION\RELEASE\RESTCLIENT.OBJ|C:\USERS\FERNANDO NEVES\DESKTOP\WORK\COMUNICATION\COMUNICATION\RELEASE\SOFTWAREMANAGER.OBJ|C:\USERS\FERNANDO NEVES\DESKTOP\WORK\COMUNICATION\COMUNICATION\RELEASE\TIME.OBJ|C:\USERS\FERNANDO NEVES\DESKTOP\WORK\COMUNICATION\COMUNICATION\RELEASE\UTILITY.OBJ
C:\PROGRAM FILES (X86)\WINDOWS KITS\8.1\LIB\WINV6.3\UM\X86\KERNEL32.LIB
C:\PROGRAM FILES (X86)\WINDOWS KITS\8.1\LIB\WINV6.3\UM\X86\USER32.LIB
C:\PROGRAM FILES (X86)\WINDOWS KITS\8.1\LIB\WINV6.3\UM\X86\GDI32.LIB
C:\PROGRAM FILES (X86)\WINDOWS KITS\8.1\LIB\WINV6.3\UM\X86\WINSPOOL.LIB
C:\PROGRAM FILES (X86)\WINDOWS KITS\8.1\LIB\WINV6.3\UM\X86\COMDLG32.LIB
C:\PROGRAM FILES (X86)\WINDOWS KITS\8.1\LIB\WINV6.3\UM\X86\ADVAPI32.LIB
C:\PROGRAM FILES (X86)\WINDOWS KITS\8.1\LIB\WINV6.3\UM\X86\SHELL32.LIB
C:\PROGRAM FILES (X86)\WINDOWS KITS\8.1\LIB\WINV6.3\UM\X86\OLE32.LIB
C:\PROGRAM FILES (X86)\WINDOWS KITS\8.1\LIB\WINV6.3\UM\X86\OLEAUT32.LIB
C:\PROGRAM FILES (X86)\WINDOWS KITS\8.1\LIB\WINV6.3\UM\X86\UUID.LIB
C:\PROGRAM FILES (X86)\WINDOWS KITS\8.1\LIB\WINV6.3\UM\X86\ODBC32.LIB
C:\PROGRAM FILES (X86)\WINDOWS KITS\8.1\LIB\WINV6.3\UM\X86\ODBCCP32.LIB
C:\USERS\FERNANDO NEVES\DESKTOP\WORK\COMUNICATION\COMUNICATION\RELEASE\COMUNICATION.OBJ
C:\USERS\FERNANDO NEVES\DESKTOP\WORK\COMUNICATION\COMUNICATION\RELEASE\JSON_READER.OBJ
C:\USERS\FERNANDO NEVES\DESKTOP\WORK\COMUNICATION\COMUNICATION\RELEASE\JSON_VALUE.OBJ
C:\USERS\FERNANDO NEVES\DESKTOP\WORK\COMUNICATION\COMUNICATION\RELEASE\JSON_WRITER.OBJ
C:\USERS\FERNANDO NEVES\DESKTOP\WORK\COMUNICATION\COMUNICATION\RELEASE\CONNECTION.OBJ
C:\USERS\FERNANDO NEVES\DESKTOP\WORK\COMUNICATION\COMUNICATION\RELEASE\HELPERS.OBJ
C:\USERS\FERNANDO NEVES\DESKTOP\WORK\COMUNICATION\COMUNICATION\RELEASE\RESTCLIENT.OBJ
C:\USERS\FERNANDO NEVES\DESKTOP\WORK\COMUNICATION\COMUNICATION\RELEASE\SOFTWAREMANAGER.OBJ
C:\USERS\FERNANDO NEVES\DESKTOP\WORK\COMUNICATION\COMUNICATION\RELEASE\TIME.OBJ
C:\USERS\FERNANDO NEVES\DESKTOP\WORK\COMUNICATION\COMUNICATION\RELEASE\UTILITY.OBJ
C:\WINDOWS\GLOBALIZATION\SORTING\SORTDEFAULT.NLS
C:\PROGRAM FILES (X86)\MICROSOFT VISUAL STUDIO 12.0\VC\BIN\C2.DLL
C:\PROGRAM FILES (X86)\MICROSOFT VISUAL STUDIO 12.0\VC\LIB\MSVCPRT.LIB
C:\USERS\FERNANDO NEVES\DESKTOP\WORK\COMUNICATION\COMUNICATION\LIBCURL.LIB
C:\PROGRAM FILES (X86)\WINDOWS KITS\8.1\LIB\WINV6.3\UM\X86\WININET.LIB
C:\PROGRAM FILES (X86)\MICROSOFT VISUAL STUDIO 12.0\VC\LIB\MSVCRT.LIB
C:\PROGRAM FILES (X86)\MICROSOFT VISUAL STUDIO 12.0\VC\LIB\OLDNAMES.LIB
C:\WINDOWS\SYSTEM32\TZRES.DLL
C:\PROGRAM FILES (X86)\MICROSOFT VISUAL STUDIO 12.0\VC\BIN\1033\LINKUI.DLL
C:\PROGRAM FILES (X86)\WINDOWS KITS\8.1\BIN\X86\RC.EXE
C:\PROGRAM FILES (X86)\MICROSOFT VISUAL STUDIO 12.0\VC\BIN\CVTRES.EXE
